…
``` r
# Bootstrap
boot <- pgIRT_boot(fit_dyn, boot = 100, verbose = 20)
#> ================================================================
#> Parametric Bootstrap for pgIRT ( Dynamic model )
#> ================================================================
#> Boostrap 20 DONE : 1.2 sec
#> Boostrap 40 DONE : 2.4 sec
#> Boostrap 60 DONE : 3.6 sec
#> Boostrap 80 DONE : 4.7 sec
#> Boostrap 100 DONE : 6 sec

summary(boot, parameter = "theta", ci = .95)
#> ==================== Parameter = theta ==================== 
#> # A tibble: 99 × 7
#>    unit      variable session ci       lwr estimate    upr
#>    <chr>     <chr>      <int> <chr>  <dbl>    <dbl>  <dbl>
#>  1 Rehnquist theta          1 95%    0.937    1.08   1.20 
#>  2 Stevens   theta          1 95%   -1.67    -1.55  -1.45 
#>  3 O.Connor  theta          1 95%    0.285    0.450  0.622
#>  4 Scalia    theta          1 95%    1.12     1.24   1.35 
#>  5 Kennedy   theta          1 95%    0.294    0.460  0.605
#>  6 Souter    theta          1 95%   -1.20    -1.08  -0.937
#>  7 Thomas    theta          1 95%    1.25     1.38   1.49 
#>  8 Ginsburg  theta          1 95%   -1.27    -1.11  -0.970
#>  9 Breyer    theta          1 95%   -0.937   -0.813 -0.696
#> 10 Rehnquist theta          2 95%    0.939    1.08   1.20 
#> # … with 89 more rows
```
…
summary(fit_mlt)$theta
#> # A tibble: 100 × 3
#>    unit  variable estimate
#>    <chr> <chr>       <dbl>
#>  1 1     theta       5.46 
#>  2 2     theta       1.17 
#>  3 3     theta      -1.45 
#>  4 4     theta      -2.99 
#>  5 5     theta      -1.01 
#>  6 6     theta      -1.45 
#>  7 7     theta      -1.46 
#>  8 8     theta      -1.44 
#>  9 9     theta      -1.45 
#> 10 10    theta      -0.747
#> # … with 90 more rows
```
…
``` r
boot_mlt_d <- pgIRT_boot(fit_mlt_d, boot = 100, verbose = 20)
#> ================================================================
#> Parametric Bootstrap for pgIRT ( Dynamic model )
#> ================================================================
#> Boostrap 20 DONE : 11.5 sec
#> Boostrap 40 DONE : 25.4 sec
#> Boostrap 60 DONE : 37.4 sec
#> Boostrap 80 DONE : 50 sec
#> Boostrap 100 DONE : 65.5 sec

summary(boot_mlt_d, parameter = "theta", ci = .99)
#> ==================== Parameter = theta ==================== 
#> # A tibble: 985 × 7
#>    unit  variable session ci       lwr estimate     upr
#>    <chr> <chr>      <int> <chr>  <dbl>    <dbl>   <dbl>
#>  1 1     theta          1 99%    0.921    1.01   1.09  
#>  2 2     theta          1 99%    0.380    0.467  0.560 
#>  3 3     theta          1 99%   -0.358   -0.317 -0.262 
#>  4 4     theta          1 99%   -0.276   -0.217 -0.153 
#>  5 5     theta          1 99%   -0.241   -0.177 -0.0931
#>  6 6     theta          1 99%   -0.365   -0.318 -0.261 
#>  7 7     theta          1 99%   -0.378   -0.323 -0.272 
#>  8 8     theta          1 99%   -0.353   -0.299 -0.236 
#>  9 9     theta          1 99%   -0.361   -0.317 -0.269 
#> 10 10    theta          1 99%   -0.237   -0.179 -0.119 
#> # … with 975 more rows
```
…
