…
fit <- pgIRT(mat, 
             model = "bin",
             init = init,
             verbose = 20)
## =========================================================================
## Polya-Gamma data augmentation Item Response Theory Model via EM Algorithm
## Model = Binomial 
## =========================================================================
## Iteration 20 : eval = alpha 2.480436e-05 elapsed 0.1 sec
## Iteration 40 : eval = alpha 4.468147e-06 elapsed 0.1 sec
## Iteration 60 : eval = alpha 1.615617e-06 elapsed 0.2 sec
## Model converged at iteration 72 : 0.2 sec
summary(fit, parameter = "theta")
## =============== Parameter = theta =============== 
## # A tibble: 102 x 3
##    variable unit_id estimate
##    <chr>      <dbl>    <dbl>
##  1 theta          1    1.84 
##  2 theta          2    1.48 
##  3 theta          3    1.80 
##  4 theta          4    1.02 
##  5 theta          5    2.05 
##  6 theta          6    0.833
##  7 theta          7    1.84 
##  8 theta          8   -1.04 
##  9 theta          9   -3.28 
## 10 theta         10   -1.35 
## # ... with 92 more rows
…
To compute confidence interval, run bootstrap via pgIRT_boot:

# Bootstrap
boot <- pgIRT_boot(fit_dyn, boot = 100, verbose = 20)
## ================================================================
## Parametric Bootstrap for pgIRT ( Dynamic Binomial )
## ================================================================
## Boostrap 20 DONE : 0.7 sec
## Boostrap 40 DONE : 1.4 sec
## Boostrap 60 DONE : 2 sec
## Boostrap 80 DONE : 2.7 sec
## Boostrap 100 DONE : 3.3 sec
summary(boot, parameter = "theta", ci = .95)
## ==================== Parameter = theta ==================== 
## # A tibble: 99 x 7
##    variable unit_id session ci    estimate   lwr   upr
##    <chr>      <dbl>   <int> <chr>    <dbl> <dbl> <dbl>
##  1 theta          1       1 95%      0.987 0.837  1.13
##  2 theta          1       2 95%      0.973 0.846  1.11
##  3 theta          1       3 95%      0.943 0.807  1.08
##  4 theta          1       4 95%      0.928 0.783  1.07
##  5 theta          1       5 95%      0.962 0.824  1.10
##  6 theta          1       6 95%      0.947 0.821  1.08
##  7 theta          1       7 95%      0.957 0.826  1.10
##  8 theta          1       8 95%      0.927 0.788  1.07
##  9 theta          1       9 95%      0.902 0.752  1.05
## 10 theta          1      10 95%      0.934 0.797  1.08
## # ... with 89 more rows
…
fit_mlt <- pgIRT(m_data,
                 model = "multi",
                 init = init_mlt, 
                 constraint = 1,
                 verbose = 20)
## =========================================================================
## Polya-Gamma data augmentation Item Response Theory Model via EM Algorithm
## Model = Multinomial (Stick-Breaking) 
## =========================================================================
## Iteration 20 : eval = beta2 0.000277376 elapsed 0 sec
## Iteration 40 : eval = beta2 9.464876e-06 elapsed 0 sec
## Model converged at iteration 55 : 0 sec
summary(fit_mlt, parameter = c("alpha", "beta"))
## =============== Parameter = alpha =============== 
## # A tibble: 30 x 3
##    variable bill_id estimate
##    <chr>      <dbl>    <dbl>
##  1 alpha1         1   -1.93 
##  2 alpha1         2    1.10 
##  3 alpha1         3    0.627
##  4 alpha1         4   -2.31 
##  5 alpha1         5   -1.85 
##  6 alpha1         6    3.10 
##  7 alpha1         7    4.66 
##  8 alpha1         8    1.61 
##  9 alpha1         9    1.21 
## 10 alpha1        10   -0.286
## # ... with 20 more rows
## =============== Parameter = beta =============== 
## # A tibble: 30 x 3
##    variable bill_id estimate
##    <chr>      <dbl>    <dbl>
##  1 beta1          1    -5.75
##  2 beta1          2    -4.15
##  3 beta1          3    -4.94
##  4 beta1          4    -5.98
##  5 beta1          5    -5.58
##  6 beta1          6    -1.10
##  7 beta1          7    -2.12
##  8 beta1          8    -4.90
##  9 beta1          9    -5.18
## 10 beta1         10    -5.38
## # ... with 20 more rows
…
Returning 99% confidence interval:

boot_mlt_d <- pgIRT_boot(fit_mlt_d, boot = 100, verbose = 20)
## ================================================================
## Parametric Bootstrap for pgIRT ( Dynamic Multinomial )
## ================================================================
## Boostrap 20 DONE : 3.7 sec
## Boostrap 40 DONE : 7.5 sec
## Boostrap 60 DONE : 11.1 sec
## Boostrap 80 DONE : 14.8 sec
## Boostrap 100 DONE : 18.4 sec
summary(boot_mlt_d, parameter = "theta", ci = .99)
## ==================== Parameter = theta ==================== 
## # A tibble: 1,000 x 7
##    variable unit_id session ci    estimate   lwr   upr
##    <chr>      <dbl>   <int> <chr>    <dbl> <dbl> <dbl>
##  1 theta          1       1 99%       2.34  2.09  2.58
##  2 theta          1       2 99%       2.33  2.07  2.58
##  3 theta          1       3 99%       2.34  2.08  2.58
##  4 theta          1       4 99%       2.33  2.10  2.57
##  5 theta          1       5 99%       2.33  2.13  2.58
##  6 theta          1       6 99%       2.33  2.13  2.57
##  7 theta          1       7 99%       2.32  2.10  2.57
##  8 theta          1       8 99%       2.31  2.12  2.56
##  9 theta          1       9 99%       2.32  2.12  2.56
## 10 theta          1      10 99%       2.33  2.12  2.59
## # ... with 990 more rows
…
